01.png	Minju
02.png	Minju
03.png	Minju
04.png	Minju
05.png	Minju
06.png	Minju
07.png	Minju
08.png	Minju
09.png	Minju
10.png	Minju
11.png	Minju
12.png	Seongho
13.png	Seongho
14.png	Seongho
15.png	Seongho
16.png	Seongho
17.png	Seongho
18.png	Seongho
19.png	Seongho
20.png	Hazard
21.png	Hazard
22.png	Jennie
23.png	Arianna
24.png	Arianna
25.png	Brad
26.png	Hazard
27.png	Hazard
28.png	Arianna
29.png	Brad
30.png	Arianna
31.png	Arianna
32.png	Arianna
33.png	Arianna
34.png	Jennie
35.png	Jennie
36.png	Brad
37.png	Brad
38.png	Brad
39.png	Jennie
40.png	Brad
41.png	Jennie
42.png	Jennie
43.png	Jennie
44.png	Hazard
45.png	Arianna
46.png	Arianna
47.png	Brad
48.png	Hazard
49.png	Hazard
50.png	Jennie
51.png	Jennie
